<?xml version="1.0" encoding="UTF-8"?>
<svg width="15px" height="19px" viewBox="0 0 15 19" version="1.1" xmlns="http://www.w3.org/2000/svg" xmlns:xlink="http://www.w3.org/1999/xlink">
    <!-- Generator: Sketch 46.1 (44463) - http://www.bohemiancoding.com/sketch -->
    <title>Combined Shape</title>
    <desc>Created with Sketch.</desc>
    <defs></defs>
    <g id="Page-1" stroke="none" stroke-width="1" fill="none" fill-rule="evenodd">
        <g id="Artboard" transform="translate(-1239.000000, -49.000000)" fill="#D7D7D7">
            <g id="Header">
                <g id="profile-section" transform="translate(1115.000000, 20.000000)">
                    <g id="Signout" transform="translate(60.000000, 29.000000)">
                        <g id="icon-signout" transform="translate(64.000000, 0.000000)">
                            <path d="M10.0270435,14.2027269 C10.2533913,14.2027269 10.4376087,14.3869443 10.4376087,14.6132921 L10.4376087,16.6115964 C10.4376087,16.6892486 10.4268696,16.9544225 10.2286087,17.1972921 C10.0146522,17.4583356 9.72965217,17.5136834 9.6586087,17.5252486 C6.74665217,18.0151182 3.83634783,18.5058138 0.924391304,18.9956834 C0.864086957,18.9956834 0.531173913,18.9890747 0.266,18.7189443 C0.00743478261,18.4554225 0,18.1349008 0,18.0712921 L0,0.920900774 C0.000826086957,0.850683383 0.0115652174,0.526857296 0.268478261,0.269118166 C0.591478261,-0.0563600952 1.02847826,0.0014659918 1.07721739,0.00807468745 C3.94291304,0.473161644 6.80778261,0.937422514 9.67265217,1.40250947 C9.74369565,1.41572686 10.0377826,1.4768573 10.2484348,1.75111817 C10.3880435,1.93450947 10.4293478,2.14681382 10.4376087,2.31203121 L10.4376087,4.30207469 L10.4326522,4.30207469 C10.4326522,4.30372686 10.4334783,4.30537904 10.4334783,4.30703121 C10.4334783,4.53420512 10.250087,4.71759643 10.022913,4.71759643 C9.79656522,4.71759643 9.61234783,4.53420512 9.61234783,4.30703121 C9.61234783,3.21246599 9.60904348,2.41198773 9.60408696,2.33846599 C9.60326087,2.32277034 9.60078261,2.2872486 9.57682609,2.2558573 C9.5503913,2.22198773 9.51486957,2.21207469 9.50413043,2.20877034 C6.64669565,1.74698773 3.79008696,1.28437904 0.932652174,0.822596427 C0.928521739,0.82177034 0.885565217,0.812683383 0.850869565,0.844900774 C0.816173913,0.877944253 0.822782609,0.924205122 0.823608696,0.92750947 C0.824434783,6.62833556 0.826086957,12.3291616 0.82773913,18.0308138 C0.826086957,18.0399008 0.819478261,18.080379 0.845913043,18.1175529 C0.870695652,18.1530747 0.916130435,18.1704225 0.96073913,18.1638138 C3.8123913,17.6797269 6.66321739,17.1948138 9.51404348,16.7107269 C9.52478261,16.7082486 9.55782609,16.6991616 9.58343478,16.6669443 C9.6073913,16.636379 9.60904348,16.6033356 9.60986957,16.5934225 C9.61234783,15.933379 9.614,15.2733356 9.61647826,14.6132921 C9.61647826,14.3869443 9.80069565,14.2027269 10.0270435,14.2027269 Z M12.5439652,6.79057904 C12.6637478,6.79057904 12.7810522,6.84179643 12.8628348,6.94175295 L14.7438348,9.2374486 L14.7372261,9.24240512 C14.8586609,9.39027469 14.8694,9.60423121 14.7438348,9.75870947 L12.8628348,12.0544051 C12.7810522,12.1535356 12.6637478,12.2047529 12.5439652,12.2047529 C12.4530957,12.2047529 12.3597478,12.1750138 12.2845739,12.1114051 C12.1086174,11.9684921 12.0821826,11.7082747 12.2259217,11.5331443 L13.5575739,9.90823121 L10.0277043,9.90823121 L5.63044348,9.90823121 C5.40244348,9.90823121 5.21905217,9.7248399 5.21905217,9.49766599 C5.21905217,9.27049208 5.40244348,9.08627469 5.63044348,9.08627469 L10.0277043,9.08627469 L13.5575739,9.08627469 L12.2259217,7.46218773 C12.0821826,7.2870573 12.1086174,7.02766599 12.2845739,6.88310077 C12.3597478,6.82114425 12.4530957,6.79057904 12.5439652,6.79057904 Z" id="Combined-Shape"></path>
                        </g>
                    </g>
                </g>
            </g>
        </g>
    </g>
</svg>